module pb_game/game

go 1.18

require (
	github.com/joho/godotenv v1.3.0
	github.com/pocketbase/pocketbase v0.15.2
	gopkg.in/h2non/gentleman.v2 v2.0.5
)

require (
	github.com/AlecAivazis/survey/v2 v2.3.6 // indirect
	github.com/asaskevich/govalidator v0.0.0-20230301143203-a9d515a09cc2 // indirect
	github.com/aws/aws-sdk-go v1.44.249 // indirect
	github.com/aws/aws-sdk-go-v2 v1.18.0 // indirect
	github.com/aws/aws-sdk-go-v2/aws/protocol/eventstream v1.4.10 // indirect
	github.com/aws/aws-sdk-go-v2/config v1.18.22 // indirect
	github.com/aws/aws-sdk-go-v2/credentials v1.13.21 // indirect
	github.com/aws/aws-sdk-go-v2/feature/ec2/imds v1.13.3 // indirect
	github.com/aws/aws-sdk-go-v2/feature/s3/manager v1.11.64 // indirect
	github.com/aws/aws-sdk-go-v2/internal/configsources v1.1.33 // indirect
	github.com/aws/aws-sdk-go-v2/internal/endpoints/v2 v2.4.27 // indirect
	github.com/aws/aws-sdk-go-v2/internal/ini v1.3.34 // indirect
	github.com/aws/aws-sdk-go-v2/internal/v4a v1.0.25 // indirect
	github.com/aws/aws-sdk-go-v2/service/internal/accept-encoding v1.9.11 // indirect
	github.com/aws/aws-sdk-go-v2/service/internal/checksum v1.1.28 // indirect
	github.com/aws/aws-sdk-go-v2/service/internal/presigned-url v1.9.27 // indirect
	github.com/aws/aws-sdk-go-v2/service/internal/s3shared v1.14.2 // indirect
	github.com/aws/aws-sdk-go-v2/service/s3 v1.33.0 // indirect
	github.com/aws/aws-sdk-go-v2/service/sso v1.12.9 // indirect
	github.com/aws/aws-sdk-go-v2/service/ssooidc v1.14.9 // indirect
	github.com/aws/aws-sdk-go-v2/service/sts v1.18.10 // indirect
	github.com/aws/smithy-go v1.13.5 // indirect
	github.com/disintegration/imaging v1.6.2 // indirect
	github.com/domodwyer/mailyak/v3 v3.6.0 // indirect
	github.com/dustin/go-humanize v1.0.1 // indirect
	github.com/fatih/color v1.15.0 // indirect
	github.com/gabriel-vasile/mimetype v1.4.2 // indirect
	github.com/ganigeorgiev/fexpr v0.3.0 // indirect
	github.com/go-ozzo/ozzo-validation/v4 v4.3.0 // indirect
	github.com/golang-jwt/jwt/v4 v4.5.0 // indirect
	github.com/golang/groupcache v0.0.0-20210331224755-41bb18bfe9da // indirect
	github.com/golang/protobuf v1.5.3 // indirect
	github.com/google/uuid v1.3.0 // indirect
	github.com/google/wire v0.5.0 // indirect
	github.com/googleapis/gax-go/v2 v2.8.0 // indirect
	github.com/inconshreveable/mousetrap v1.1.0 // indirect
	github.com/jmespath/go-jmespath v0.4.0 // indirect
	github.com/kballard/go-shellquote v0.0.0-20180428030007-95032a82bc51 // indirect
	github.com/labstack/echo/v5 v5.0.0-20220201181537-ed2888cfa198 // indirect
	github.com/mattn/go-colorable v0.1.13 // indirect
	github.com/mattn/go-isatty v0.0.18 // indirect
	github.com/mattn/go-sqlite3 v1.14.16 // indirect
	github.com/mgutz/ansi v0.0.0-20200706080929-d51e80ef957d // indirect
	github.com/nbio/st v0.0.0-20140626010706-e9e8d9816f32 // indirect
	github.com/pocketbase/dbx v1.10.0 // indirect
	github.com/remyoudompheng/bigfft v0.0.0-20230129092748-24d4a6f8daec // indirect
	github.com/spf13/cast v1.5.0 // indirect
	github.com/spf13/cobra v1.7.0 // indirect
	github.com/spf13/pflag v1.0.5 // indirect
	github.com/valyala/bytebufferpool v1.0.0 // indirect
	github.com/valyala/fasttemplate v1.2.2 // indirect
	go.opencensus.io v0.24.0 // indirect
	gocloud.dev v0.29.0 // indirect
	golang.org/x/crypto v0.8.0 // indirect
	golang.org/x/image v0.7.0 // indirect
	golang.org/x/mod v0.10.0 // indirect
	golang.org/x/net v0.9.0 // indirect
	golang.org/x/oauth2 v0.7.0 // indirect
	golang.org/x/sys v0.7.0 // indirect
	golang.org/x/term v0.7.0 // indirect
	golang.org/x/text v0.9.0 // indirect
	golang.org/x/time v0.3.0 // indirect
	golang.org/x/tools v0.8.0 // indirect
	golang.org/x/xerrors v0.0.0-20220907171357-04be3eba64a2 // indirect
	google.golang.org/api v0.119.0 // indirect
	google.golang.org/appengine v1.6.7 // indirect
	google.golang.org/genproto v0.0.0-20230410155749-daa745c078e1 // indirect
	google.golang.org/grpc v1.54.0 // indirect
	google.golang.org/protobuf v1.30.0 // indirect
	lukechampine.com/uint128 v1.3.0 // indirect
	modernc.org/cc/v3 v3.40.0 // indirect
	modernc.org/ccgo/v3 v3.16.13 // indirect
	modernc.org/libc v1.22.5 // indirect
	modernc.org/mathutil v1.5.0 // indirect
	modernc.org/memory v1.5.0 // indirect
	modernc.org/opt v0.1.3 // indirect
	modernc.org/sqlite v1.22.0 // indirect
	modernc.org/strutil v1.1.3 // indirect
	modernc.org/token v1.1.0 // indirect
)
